[api-updater (non-obsolete-error-filter)] 2/10/2022 7:22:58 PM : Starting C:/Program Files/Unity/Hub/Editor/2020.3.25f1/Editor/Data/Tools/ScriptUpdater/APIUpdater.NonObsoleteApiUpdaterDetector.exe
[api-updater (non-obsolete-error-filter)] 
----------------------------------
jit/startup time      : 868.4162ms
moved types parse time: 53ms
candidates parse time : 1ms
C# parse time         : 521ms
candidates check time : 24ms
console write time    : 0ms

[api-updater (non-obsolete-error-filter)] 2/10/2022 7:27:52 PM : Starting C:/Program Files/Unity/Hub/Editor/2020.3.25f1/Editor/Data/Tools/ScriptUpdater/APIUpdater.NonObsoleteApiUpdaterDetector.exe
[api-updater (non-obsolete-error-filter)] 
----------------------------------
jit/startup time      : 95.225ms
moved types parse time: 49ms
candidates parse time : 1ms
C# parse time         : 178ms
candidates check time : 36ms
console write time    : 0ms

[api-updater (non-obsolete-error-filter)] 2/10/2022 7:35:36 PM : Starting C:/Program Files/Unity/Hub/Editor/2020.3.25f1/Editor/Data/Tools/ScriptUpdater/APIUpdater.NonObsoleteApiUpdaterDetector.exe
[api-updater (non-obsolete-error-filter)] 
----------------------------------
jit/startup time      : 107.2367ms
moved types parse time: 47ms
candidates parse time : 1ms
C# parse time         : 190ms
candidates check time : 40ms
console write time    : 0ms

[api-updater (non-obsolete-error-filter)] 2/10/2022 7:39:38 PM : Starting C:/Program Files/Unity/Hub/Editor/2020.3.25f1/Editor/Data/Tools/ScriptUpdater/APIUpdater.NonObsoleteApiUpdaterDetector.exe
[api-updater (non-obsolete-error-filter)] 
----------------------------------
jit/startup time      : 83.2835ms
moved types parse time: 54ms
candidates parse time : 1ms
C# parse time         : 181ms
candidates check time : 39ms
console write time    : 0ms

[api-updater (non-obsolete-error-filter)] 2/13/2022 5:28:42 PM : Starting C:/Program Files/Unity/Hub/Editor/2020.3.25f1/Editor/Data/Tools/ScriptUpdater/APIUpdater.NonObsoleteApiUpdaterDetector.exe
[api-updater (non-obsolete-error-filter)] 
----------------------------------
jit/startup time      : 925.4858ms
moved types parse time: 89ms
candidates parse time : 1ms
C# parse time         : 979ms
candidates check time : 33ms
console write time    : 0ms

[api-updater (non-obsolete-error-filter)] 2/13/2022 5:40:49 PM : Starting C:/Program Files/Unity/Hub/Editor/2020.3.25f1/Editor/Data/Tools/ScriptUpdater/APIUpdater.NonObsoleteApiUpdaterDetector.exe
[api-updater (non-obsolete-error-filter)] 
----------------------------------
jit/startup time      : 91.9489ms
moved types parse time: 71ms
candidates parse time : 1ms
C# parse time         : 246ms
candidates check time : 43ms
console write time    : 0ms

[api-updater (non-obsolete-error-filter)] 2/13/2022 5:52:05 PM : Starting C:/Program Files/Unity/Hub/Editor/2020.3.25f1/Editor/Data/Tools/ScriptUpdater/APIUpdater.NonObsoleteApiUpdaterDetector.exe
[api-updater (non-obsolete-error-filter)] 
----------------------------------
jit/startup time      : 138.8662ms
moved types parse time: 54ms
candidates parse time : 1ms
C# parse time         : 230ms
candidates check time : 35ms
console write time    : 0ms

[api-updater (non-obsolete-error-filter)] 2/13/2022 6:01:37 PM : Starting C:/Program Files/Unity/Hub/Editor/2020.3.25f1/Editor/Data/Tools/ScriptUpdater/APIUpdater.NonObsoleteApiUpdaterDetector.exe
[api-updater (non-obsolete-error-filter)] 
----------------------------------
jit/startup time      : 115.9229ms
moved types parse time: 97ms
candidates parse time : 1ms
C# parse time         : 193ms
candidates check time : 37ms
console write time    : 0ms

[api-updater (non-obsolete-error-filter)] 2/13/2022 6:02:01 PM : Starting C:/Program Files/Unity/Hub/Editor/2020.3.25f1/Editor/Data/Tools/ScriptUpdater/APIUpdater.NonObsoleteApiUpdaterDetector.exe
[api-updater (non-obsolete-error-filter)] 
----------------------------------
jit/startup time      : 85.7232ms
moved types parse time: 77ms
candidates parse time : 1ms
C# parse time         : 256ms
candidates check time : 40ms
console write time    : 0ms

[api-updater (non-obsolete-error-filter)] 2/13/2022 6:24:47 PM : Starting C:/Program Files/Unity/Hub/Editor/2020.3.25f1/Editor/Data/Tools/ScriptUpdater/APIUpdater.NonObsoleteApiUpdaterDetector.exe
[api-updater (non-obsolete-error-filter)] 
----------------------------------
jit/startup time      : 105.7814ms
moved types parse time: 60ms
candidates parse time : 1ms
C# parse time         : 210ms
candidates check time : 52ms
console write time    : 0ms

[api-updater (non-obsolete-error-filter)] 2/13/2022 6:30:44 PM : Starting C:/Program Files/Unity/Hub/Editor/2020.3.25f1/Editor/Data/Tools/ScriptUpdater/APIUpdater.NonObsoleteApiUpdaterDetector.exe
[api-updater (non-obsolete-error-filter)] 
----------------------------------
jit/startup time      : 81.6277ms
moved types parse time: 66ms
candidates parse time : 33ms
C# parse time         : 223ms
candidates check time : 47ms
console write time    : 0ms

[api-updater (non-obsolete-error-filter)] 2/13/2022 6:30:59 PM : Starting C:/Program Files/Unity/Hub/Editor/2020.3.25f1/Editor/Data/Tools/ScriptUpdater/APIUpdater.NonObsoleteApiUpdaterDetector.exe
[api-updater (non-obsolete-error-filter)] 
----------------------------------
jit/startup time      : 93.9838ms
moved types parse time: 59ms
candidates parse time : 1ms
C# parse time         : 212ms
candidates check time : 41ms
console write time    : 0ms

[api-updater (non-obsolete-error-filter)] 2/13/2022 6:34:44 PM : Starting C:/Program Files/Unity/Hub/Editor/2020.3.25f1/Editor/Data/Tools/ScriptUpdater/APIUpdater.NonObsoleteApiUpdaterDetector.exe
[api-updater (non-obsolete-error-filter)] 
----------------------------------
jit/startup time      : 87.949ms
moved types parse time: 69ms
candidates parse time : 1ms
C# parse time         : 219ms
candidates check time : 32ms
console write time    : 0ms

[api-updater (non-obsolete-error-filter)] 2/13/2022 6:42:22 PM : Starting C:/Program Files/Unity/Hub/Editor/2020.3.25f1/Editor/Data/Tools/ScriptUpdater/APIUpdater.NonObsoleteApiUpdaterDetector.exe
[api-updater (non-obsolete-error-filter)] 
----------------------------------
jit/startup time      : 81.9535ms
moved types parse time: 63ms
candidates parse time : 1ms
C# parse time         : 233ms
candidates check time : 39ms
console write time    : 0ms

[api-updater (non-obsolete-error-filter)] 2/13/2022 6:51:41 PM : Starting C:/Program Files/Unity/Hub/Editor/2020.3.25f1/Editor/Data/Tools/ScriptUpdater/APIUpdater.NonObsoleteApiUpdaterDetector.exe
[api-updater (non-obsolete-error-filter)] 
----------------------------------
jit/startup time      : 98.932ms
moved types parse time: 55ms
candidates parse time : 1ms
C# parse time         : 207ms
candidates check time : 44ms
console write time    : 0ms

[api-updater (non-obsolete-error-filter)] 2/13/2022 6:51:48 PM : Starting C:/Program Files/Unity/Hub/Editor/2020.3.25f1/Editor/Data/Tools/ScriptUpdater/APIUpdater.NonObsoleteApiUpdaterDetector.exe
[api-updater (non-obsolete-error-filter)] 
----------------------------------
jit/startup time      : 100.1086ms
moved types parse time: 60ms
candidates parse time : 1ms
C# parse time         : 222ms
candidates check time : 32ms
console write time    : 0ms

[api-updater (non-obsolete-error-filter)] 2/13/2022 6:56:15 PM : Starting C:/Program Files/Unity/Hub/Editor/2020.3.25f1/Editor/Data/Tools/ScriptUpdater/APIUpdater.NonObsoleteApiUpdaterDetector.exe
[api-updater (non-obsolete-error-filter)] 
----------------------------------
jit/startup time      : 80.9541ms
moved types parse time: 60ms
candidates parse time : 1ms
C# parse time         : 219ms
candidates check time : 32ms
console write time    : 0ms

[api-updater (non-obsolete-error-filter)] 2/13/2022 7:05:44 PM : Starting C:/Program Files/Unity/Hub/Editor/2020.3.25f1/Editor/Data/Tools/ScriptUpdater/APIUpdater.NonObsoleteApiUpdaterDetector.exe
[api-updater (non-obsolete-error-filter)] 
----------------------------------
jit/startup time      : 85.3143ms
moved types parse time: 58ms
candidates parse time : 1ms
C# parse time         : 195ms
candidates check time : 47ms
console write time    : 0ms

[api-updater (non-obsolete-error-filter)] 2/13/2022 7:05:54 PM : Starting C:/Program Files/Unity/Hub/Editor/2020.3.25f1/Editor/Data/Tools/ScriptUpdater/APIUpdater.NonObsoleteApiUpdaterDetector.exe
[api-updater (non-obsolete-error-filter)] 
----------------------------------
jit/startup time      : 100.1362ms
moved types parse time: 65ms
candidates parse time : 1ms
C# parse time         : 245ms
candidates check time : 35ms
console write time    : 0ms

[api-updater (non-obsolete-error-filter)] 2/13/2022 8:03:54 PM : Starting C:/Program Files/Unity/Hub/Editor/2020.3.25f1/Editor/Data/Tools/ScriptUpdater/APIUpdater.NonObsoleteApiUpdaterDetector.exe
[api-updater (non-obsolete-error-filter)] 
----------------------------------
jit/startup time      : 109.096ms
moved types parse time: 57ms
candidates parse time : 1ms
C# parse time         : 222ms
candidates check time : 47ms
console write time    : 0ms

[api-updater (non-obsolete-error-filter)] 2/14/2022 10:14:58 PM : Starting C:/Program Files/Unity/Hub/Editor/2020.3.25f1/Editor/Data/Tools/ScriptUpdater/APIUpdater.NonObsoleteApiUpdaterDetector.exe
[api-updater (non-obsolete-error-filter)] 
----------------------------------
jit/startup time      : 911.6534ms
moved types parse time: 59ms
candidates parse time : 1ms
C# parse time         : 708ms
candidates check time : 32ms
console write time    : 0ms

[api-updater (non-obsolete-error-filter)] 2/14/2022 10:40:48 PM : Starting C:/Program Files/Unity/Hub/Editor/2020.3.25f1/Editor/Data/Tools/ScriptUpdater/APIUpdater.NonObsoleteApiUpdaterDetector.exe
[api-updater (non-obsolete-error-filter)] 
----------------------------------
jit/startup time      : 83.9519ms
moved types parse time: 55ms
candidates parse time : 1ms
C# parse time         : 213ms
candidates check time : 51ms
console write time    : 0ms

[api-updater (non-obsolete-error-filter)] 2/14/2022 10:42:15 PM : Starting C:/Program Files/Unity/Hub/Editor/2020.3.25f1/Editor/Data/Tools/ScriptUpdater/APIUpdater.NonObsoleteApiUpdaterDetector.exe
[api-updater (non-obsolete-error-filter)] 
----------------------------------
jit/startup time      : 119.9307ms
moved types parse time: 55ms
candidates parse time : 1ms
C# parse time         : 211ms
candidates check time : 39ms
console write time    : 0ms

[api-updater (non-obsolete-error-filter)] 2/14/2022 10:43:09 PM : Starting C:/Program Files/Unity/Hub/Editor/2020.3.25f1/Editor/Data/Tools/ScriptUpdater/APIUpdater.NonObsoleteApiUpdaterDetector.exe
[api-updater (non-obsolete-error-filter)] 
----------------------------------
jit/startup time      : 84.9496ms
moved types parse time: 81ms
candidates parse time : 1ms
C# parse time         : 205ms
candidates check time : 50ms
console write time    : 0ms

[api-updater (non-obsolete-error-filter)] 2/14/2022 10:44:23 PM : Starting C:/Program Files/Unity/Hub/Editor/2020.3.25f1/Editor/Data/Tools/ScriptUpdater/APIUpdater.NonObsoleteApiUpdaterDetector.exe
[api-updater (non-obsolete-error-filter)] 
----------------------------------
jit/startup time      : 84.9586ms
moved types parse time: 66ms
candidates parse time : 1ms
C# parse time         : 209ms
candidates check time : 43ms
console write time    : 0ms

[api-updater (non-obsolete-error-filter)] 2/14/2022 11:07:38 PM : Starting C:/Program Files/Unity/Hub/Editor/2020.3.25f1/Editor/Data/Tools/ScriptUpdater/APIUpdater.NonObsoleteApiUpdaterDetector.exe
[api-updater (non-obsolete-error-filter)] 
----------------------------------
jit/startup time      : 106.9398ms
moved types parse time: 58ms
candidates parse time : 1ms
C# parse time         : 183ms
candidates check time : 33ms
console write time    : 0ms

[api-updater (non-obsolete-error-filter)] 2/14/2022 11:08:20 PM : Starting C:/Program Files/Unity/Hub/Editor/2020.3.25f1/Editor/Data/Tools/ScriptUpdater/APIUpdater.NonObsoleteApiUpdaterDetector.exe
[api-updater (non-obsolete-error-filter)] 
----------------------------------
jit/startup time      : 80.9536ms
moved types parse time: 91ms
candidates parse time : 1ms
C# parse time         : 198ms
candidates check time : 29ms
console write time    : 0ms

[api-updater (non-obsolete-error-filter)] 2/14/2022 11:08:56 PM : Starting C:/Program Files/Unity/Hub/Editor/2020.3.25f1/Editor/Data/Tools/ScriptUpdater/APIUpdater.NonObsoleteApiUpdaterDetector.exe
[api-updater (non-obsolete-error-filter)] 
----------------------------------
jit/startup time      : 84.9513ms
moved types parse time: 58ms
candidates parse time : 1ms
C# parse time         : 227ms
candidates check time : 32ms
console write time    : 0ms

[api-updater (non-obsolete-error-filter)] 2/14/2022 11:09:15 PM : Starting C:/Program Files/Unity/Hub/Editor/2020.3.25f1/Editor/Data/Tools/ScriptUpdater/APIUpdater.NonObsoleteApiUpdaterDetector.exe
[api-updater (non-obsolete-error-filter)] 
----------------------------------
jit/startup time      : 79.9533ms
moved types parse time: 54ms
candidates parse time : 1ms
C# parse time         : 200ms
candidates check time : 37ms
console write time    : 0ms

[api-updater (non-obsolete-error-filter)] 2/14/2022 11:11:02 PM : Starting C:/Program Files/Unity/Hub/Editor/2020.3.25f1/Editor/Data/Tools/ScriptUpdater/APIUpdater.NonObsoleteApiUpdaterDetector.exe
[api-updater (non-obsolete-error-filter)] 
----------------------------------
jit/startup time      : 189.9062ms
moved types parse time: 59ms
candidates parse time : 1ms
C# parse time         : 191ms
candidates check time : 29ms
console write time    : 0ms

[api-updater (non-obsolete-error-filter)] 2/14/2022 11:11:49 PM : Starting C:/Program Files/Unity/Hub/Editor/2020.3.25f1/Editor/Data/Tools/ScriptUpdater/APIUpdater.NonObsoleteApiUpdaterDetector.exe
[api-updater (non-obsolete-error-filter)] 
----------------------------------
jit/startup time      : 88.9501ms
moved types parse time: 69ms
candidates parse time : 1ms
C# parse time         : 196ms
candidates check time : 31ms
console write time    : 0ms

[api-updater (non-obsolete-error-filter)] 2/15/2022 1:02:31 PM : Starting C:/Program Files/Unity/Hub/Editor/2020.3.25f1/Editor/Data/Tools/ScriptUpdater/APIUpdater.NonObsoleteApiUpdaterDetector.exe
[api-updater (non-obsolete-error-filter)] 
----------------------------------
jit/startup time      : 949.1114ms
moved types parse time: 53ms
candidates parse time : 1ms
C# parse time         : 680ms
candidates check time : 37ms
console write time    : 0ms

[api-updater (non-obsolete-error-filter)] 2/15/2022 1:10:38 PM : Starting C:/Program Files/Unity/Hub/Editor/2020.3.25f1/Editor/Data/Tools/ScriptUpdater/APIUpdater.NonObsoleteApiUpdaterDetector.exe
[api-updater (non-obsolete-error-filter)] 
----------------------------------
jit/startup time      : 87.9647ms
moved types parse time: 55ms
candidates parse time : 1ms
C# parse time         : 214ms
candidates check time : 34ms
console write time    : 0ms

[api-updater (non-obsolete-error-filter)] 2/15/2022 1:11:11 PM : Starting C:/Program Files/Unity/Hub/Editor/2020.3.25f1/Editor/Data/Tools/ScriptUpdater/APIUpdater.NonObsoleteApiUpdaterDetector.exe
[api-updater (non-obsolete-error-filter)] 
----------------------------------
jit/startup time      : 92.946ms
moved types parse time: 86ms
candidates parse time : 1ms
C# parse time         : 233ms
candidates check time : 34ms
console write time    : 0ms

[api-updater (non-obsolete-error-filter)] 2/15/2022 2:00:41 PM : Starting C:/Program Files/Unity/Hub/Editor/2020.3.25f1/Editor/Data/Tools/ScriptUpdater/APIUpdater.NonObsoleteApiUpdaterDetector.exe
[api-updater (non-obsolete-error-filter)] 
----------------------------------
jit/startup time      : 108.9368ms
moved types parse time: 63ms
candidates parse time : 1ms
C# parse time         : 215ms
candidates check time : 55ms
console write time    : 0ms

[api-updater (non-obsolete-error-filter)] 2/15/2022 2:00:47 PM : Starting C:/Program Files/Unity/Hub/Editor/2020.3.25f1/Editor/Data/Tools/ScriptUpdater/APIUpdater.NonObsoleteApiUpdaterDetector.exe
[api-updater (non-obsolete-error-filter)] 
----------------------------------
jit/startup time      : 89.9488ms
moved types parse time: 57ms
candidates parse time : 1ms
C# parse time         : 279ms
candidates check time : 51ms
console write time    : 0ms

[api-updater (non-obsolete-error-filter)] 2/15/2022 2:00:52 PM : Starting C:/Program Files/Unity/Hub/Editor/2020.3.25f1/Editor/Data/Tools/ScriptUpdater/APIUpdater.NonObsoleteApiUpdaterDetector.exe
[api-updater (non-obsolete-error-filter)] 
----------------------------------
jit/startup time      : 92.9463ms
moved types parse time: 55ms
candidates parse time : 1ms
C# parse time         : 247ms
candidates check time : 63ms
console write time    : 0ms

[api-updater (non-obsolete-error-filter)] 2/15/2022 2:00:54 PM : Starting C:/Program Files/Unity/Hub/Editor/2020.3.25f1/Editor/Data/Tools/ScriptUpdater/APIUpdater.NonObsoleteApiUpdaterDetector.exe
[api-updater (non-obsolete-error-filter)] 
----------------------------------
jit/startup time      : 110.9352ms
moved types parse time: 55ms
candidates parse time : 1ms
C# parse time         : 224ms
candidates check time : 46ms
console write time    : 0ms

[api-updater (non-obsolete-error-filter)] 2/15/2022 2:01:11 PM : Starting C:/Program Files/Unity/Hub/Editor/2020.3.25f1/Editor/Data/Tools/ScriptUpdater/APIUpdater.NonObsoleteApiUpdaterDetector.exe
[api-updater (non-obsolete-error-filter)] 
----------------------------------
jit/startup time      : 107.9562ms
moved types parse time: 64ms
candidates parse time : 1ms
C# parse time         : 225ms
candidates check time : 40ms
console write time    : 0ms

[api-updater (non-obsolete-error-filter)] 2/15/2022 2:06:38 PM : Starting C:/Program Files/Unity/Hub/Editor/2020.3.25f1/Editor/Data/Tools/ScriptUpdater/APIUpdater.NonObsoleteApiUpdaterDetector.exe
[api-updater (non-obsolete-error-filter)] 
----------------------------------
jit/startup time      : 84.9499ms
moved types parse time: 55ms
candidates parse time : 1ms
C# parse time         : 231ms
candidates check time : 37ms
console write time    : 0ms

[api-updater (non-obsolete-error-filter)] 2/15/2022 2:06:41 PM : Starting C:/Program Files/Unity/Hub/Editor/2020.3.25f1/Editor/Data/Tools/ScriptUpdater/APIUpdater.NonObsoleteApiUpdaterDetector.exe
[api-updater (non-obsolete-error-filter)] 
----------------------------------
jit/startup time      : 146.9152ms
moved types parse time: 54ms
candidates parse time : 1ms
C# parse time         : 226ms
candidates check time : 36ms
console write time    : 0ms

[api-updater (non-obsolete-error-filter)] 2/15/2022 3:40:46 PM : Starting C:/Program Files/Unity/Hub/Editor/2020.3.25f1/Editor/Data/Tools/ScriptUpdater/APIUpdater.NonObsoleteApiUpdaterDetector.exe
[api-updater (non-obsolete-error-filter)] 
----------------------------------
jit/startup time      : 245.8595ms
moved types parse time: 88ms
candidates parse time : 1ms
C# parse time         : 238ms
candidates check time : 40ms
console write time    : 0ms

[api-updater (non-obsolete-error-filter)] 2/15/2022 3:40:56 PM : Starting C:/Program Files/Unity/Hub/Editor/2020.3.25f1/Editor/Data/Tools/ScriptUpdater/APIUpdater.NonObsoleteApiUpdaterDetector.exe
[api-updater (non-obsolete-error-filter)] 
----------------------------------
jit/startup time      : 95.9454ms
moved types parse time: 53ms
candidates parse time : 1ms
C# parse time         : 260ms
candidates check time : 82ms
console write time    : 0ms

[api-updater (non-obsolete-error-filter)] 2/15/2022 3:41:26 PM : Starting C:/Program Files/Unity/Hub/Editor/2020.3.25f1/Editor/Data/Tools/ScriptUpdater/APIUpdater.NonObsoleteApiUpdaterDetector.exe
[api-updater (non-obsolete-error-filter)] 
----------------------------------
jit/startup time      : 85.9512ms
moved types parse time: 57ms
candidates parse time : 1ms
C# parse time         : 259ms
candidates check time : 83ms
console write time    : 0ms

[api-updater (non-obsolete-error-filter)] 2/15/2022 3:42:49 PM : Starting C:/Program Files/Unity/Hub/Editor/2020.3.25f1/Editor/Data/Tools/ScriptUpdater/APIUpdater.NonObsoleteApiUpdaterDetector.exe
[api-updater (non-obsolete-error-filter)] 
----------------------------------
jit/startup time      : 135.9089ms
moved types parse time: 55ms
candidates parse time : 1ms
C# parse time         : 285ms
candidates check time : 37ms
console write time    : 0ms

[api-updater (non-obsolete-error-filter)] 2/15/2022 3:59:50 PM : Starting C:/Program Files/Unity/Hub/Editor/2020.3.25f1/Editor/Data/Tools/ScriptUpdater/APIUpdater.NonObsoleteApiUpdaterDetector.exe
[api-updater (non-obsolete-error-filter)] 
----------------------------------
jit/startup time      : 112.9313ms
moved types parse time: 59ms
candidates parse time : 1ms
C# parse time         : 243ms
candidates check time : 58ms
console write time    : 0ms

[api-updater (non-obsolete-error-filter)] 2/15/2022 3:59:59 PM : Starting C:/Program Files/Unity/Hub/Editor/2020.3.25f1/Editor/Data/Tools/ScriptUpdater/APIUpdater.NonObsoleteApiUpdaterDetector.exe
[api-updater (non-obsolete-error-filter)] 
----------------------------------
jit/startup time      : 108.9364ms
moved types parse time: 54ms
candidates parse time : 1ms
C# parse time         : 215ms
candidates check time : 54ms
console write time    : 0ms

[api-updater (non-obsolete-error-filter)] 2/15/2022 4:01:02 PM : Starting C:/Program Files/Unity/Hub/Editor/2020.3.25f1/Editor/Data/Tools/ScriptUpdater/APIUpdater.NonObsoleteApiUpdaterDetector.exe
[api-updater (non-obsolete-error-filter)] 
----------------------------------
jit/startup time      : 106.9383ms
moved types parse time: 87ms
candidates parse time : 2ms
C# parse time         : 215ms
candidates check time : 59ms
console write time    : 0ms

[api-updater (non-obsolete-error-filter)] 2/15/2022 4:01:10 PM : Starting C:/Program Files/Unity/Hub/Editor/2020.3.25f1/Editor/Data/Tools/ScriptUpdater/APIUpdater.NonObsoleteApiUpdaterDetector.exe
[api-updater (non-obsolete-error-filter)] 
----------------------------------
jit/startup time      : 132.9219ms
moved types parse time: 56ms
candidates parse time : 1ms
C# parse time         : 216ms
candidates check time : 55ms
console write time    : 0ms

[api-updater (non-obsolete-error-filter)] 2/15/2022 4:02:50 PM : Starting C:/Program Files/Unity/Hub/Editor/2020.3.25f1/Editor/Data/Tools/ScriptUpdater/APIUpdater.NonObsoleteApiUpdaterDetector.exe
[api-updater (non-obsolete-error-filter)] 
----------------------------------
jit/startup time      : 92.9458ms
moved types parse time: 52ms
candidates parse time : 1ms
C# parse time         : 245ms
candidates check time : 59ms
console write time    : 0ms

[api-updater (non-obsolete-error-filter)] 2/15/2022 4:57:56 PM : Starting C:/Program Files/Unity/Hub/Editor/2020.3.25f1/Editor/Data/Tools/ScriptUpdater/APIUpdater.NonObsoleteApiUpdaterDetector.exe
[api-updater (non-obsolete-error-filter)] 
----------------------------------
jit/startup time      : 245.8595ms
moved types parse time: 56ms
candidates parse time : 1ms
C# parse time         : 239ms
candidates check time : 54ms
console write time    : 0ms

[api-updater (non-obsolete-error-filter)] 2/15/2022 4:58:21 PM : Starting C:/Program Files/Unity/Hub/Editor/2020.3.25f1/Editor/Data/Tools/ScriptUpdater/APIUpdater.NonObsoleteApiUpdaterDetector.exe
[api-updater (non-obsolete-error-filter)] 
----------------------------------
jit/startup time      : 110.9258ms
moved types parse time: 110ms
candidates parse time : 1ms
C# parse time         : 227ms
candidates check time : 55ms
console write time    : 0ms

[api-updater (non-obsolete-error-filter)] 2/15/2022 4:59:53 PM : Starting C:/Program Files/Unity/Hub/Editor/2020.3.25f1/Editor/Data/Tools/ScriptUpdater/APIUpdater.NonObsoleteApiUpdaterDetector.exe
[api-updater (non-obsolete-error-filter)] 
----------------------------------
jit/startup time      : 169.032ms
moved types parse time: 81ms
candidates parse time : 1ms
C# parse time         : 281ms
candidates check time : 48ms
console write time    : 0ms

[api-updater (non-obsolete-error-filter)] 2/15/2022 5:00:02 PM : Starting C:/Program Files/Unity/Hub/Editor/2020.3.25f1/Editor/Data/Tools/ScriptUpdater/APIUpdater.NonObsoleteApiUpdaterDetector.exe
[api-updater (non-obsolete-error-filter)] 
----------------------------------
jit/startup time      : 90.9625ms
moved types parse time: 59ms
candidates parse time : 1ms
C# parse time         : 243ms
candidates check time : 42ms
console write time    : 0ms

[api-updater (non-obsolete-error-filter)] 2/15/2022 5:00:36 PM : Starting C:/Program Files/Unity/Hub/Editor/2020.3.25f1/Editor/Data/Tools/ScriptUpdater/APIUpdater.NonObsoleteApiUpdaterDetector.exe
[api-updater (non-obsolete-error-filter)] 
----------------------------------
jit/startup time      : 109.9202ms
moved types parse time: 57ms
candidates parse time : 1ms
C# parse time         : 250ms
candidates check time : 38ms
console write time    : 0ms

[api-updater (non-obsolete-error-filter)] 2/15/2022 5:19:57 PM : Starting C:/Program Files/Unity/Hub/Editor/2020.3.25f1/Editor/Data/Tools/ScriptUpdater/APIUpdater.NonObsoleteApiUpdaterDetector.exe
[api-updater (non-obsolete-error-filter)] 
----------------------------------
jit/startup time      : 212.8791ms
moved types parse time: 66ms
candidates parse time : 1ms
C# parse time         : 224ms
candidates check time : 47ms
console write time    : 0ms

[api-updater (non-obsolete-error-filter)] 2/15/2022 5:44:28 PM : Starting C:/Program Files/Unity/Hub/Editor/2020.3.25f1/Editor/Data/Tools/ScriptUpdater/APIUpdater.NonObsoleteApiUpdaterDetector.exe
[api-updater (non-obsolete-error-filter)] 
----------------------------------
jit/startup time      : 106.9382ms
moved types parse time: 66ms
candidates parse time : 1ms
C# parse time         : 232ms
candidates check time : 40ms
console write time    : 0ms

[api-updater (non-obsolete-error-filter)] 2/15/2022 7:47:03 PM : Starting C:/Program Files/Unity/Hub/Editor/2020.3.25f1/Editor/Data/Tools/ScriptUpdater/APIUpdater.NonObsoleteApiUpdaterDetector.exe
[api-updater (non-obsolete-error-filter)] 
----------------------------------
jit/startup time      : 1090.9625ms
moved types parse time: 67ms
candidates parse time : 1ms
C# parse time         : 853ms
candidates check time : 39ms
console write time    : 0ms

[api-updater (non-obsolete-error-filter)] 2/16/2022 2:45:50 PM : Starting C:/Program Files/Unity/Hub/Editor/2020.3.25f1/Editor/Data/Tools/ScriptUpdater/APIUpdater.NonObsoleteApiUpdaterDetector.exe
[api-updater (non-obsolete-error-filter)] 
----------------------------------
jit/startup time      : 1447.8906ms
moved types parse time: 55ms
candidates parse time : 1ms
C# parse time         : 605ms
candidates check time : 25ms
console write time    : 0ms

[api-updater (non-obsolete-error-filter)] 2/16/2022 2:54:40 PM : Starting C:/Program Files/Unity/Hub/Editor/2020.3.25f1/Editor/Data/Tools/ScriptUpdater/APIUpdater.NonObsoleteApiUpdaterDetector.exe
[api-updater (non-obsolete-error-filter)] 
----------------------------------
jit/startup time      : 87.9485ms
moved types parse time: 58ms
candidates parse time : 1ms
C# parse time         : 216ms
candidates check time : 35ms
console write time    : 0ms

[api-updater (non-obsolete-error-filter)] 2/16/2022 2:55:18 PM : Starting C:/Program Files/Unity/Hub/Editor/2020.3.25f1/Editor/Data/Tools/ScriptUpdater/APIUpdater.NonObsoleteApiUpdaterDetector.exe
[api-updater (non-obsolete-error-filter)] 
----------------------------------
jit/startup time      : 87.9398ms
moved types parse time: 68ms
candidates parse time : 2ms
C# parse time         : 254ms
candidates check time : 39ms
console write time    : 0ms

[api-updater (non-obsolete-error-filter)] 2/16/2022 2:55:57 PM : Starting C:/Program Files/Unity/Hub/Editor/2020.3.25f1/Editor/Data/Tools/ScriptUpdater/APIUpdater.NonObsoleteApiUpdaterDetector.exe
[api-updater (non-obsolete-error-filter)] 
----------------------------------
jit/startup time      : 103.9381ms
moved types parse time: 56ms
candidates parse time : 1ms
C# parse time         : 239ms
candidates check time : 33ms
console write time    : 0ms

[api-updater (non-obsolete-error-filter)] 2/16/2022 2:56:00 PM : Starting C:/Program Files/Unity/Hub/Editor/2020.3.25f1/Editor/Data/Tools/ScriptUpdater/APIUpdater.NonObsoleteApiUpdaterDetector.exe
[api-updater (non-obsolete-error-filter)] 
----------------------------------
jit/startup time      : 82.9524ms
moved types parse time: 107ms
candidates parse time : 1ms
C# parse time         : 195ms
candidates check time : 32ms
console write time    : 0ms

[api-updater (non-obsolete-error-filter)] 2/16/2022 2:56:19 PM : Starting C:/Program Files/Unity/Hub/Editor/2020.3.25f1/Editor/Data/Tools/ScriptUpdater/APIUpdater.NonObsoleteApiUpdaterDetector.exe
[api-updater (non-obsolete-error-filter)] 
----------------------------------
jit/startup time      : 119.9313ms
moved types parse time: 54ms
candidates parse time : 1ms
C# parse time         : 213ms
candidates check time : 34ms
console write time    : 0ms

[api-updater (non-obsolete-error-filter)] 2/16/2022 2:56:22 PM : Starting C:/Program Files/Unity/Hub/Editor/2020.3.25f1/Editor/Data/Tools/ScriptUpdater/APIUpdater.NonObsoleteApiUpdaterDetector.exe
[api-updater (non-obsolete-error-filter)] 
----------------------------------
jit/startup time      : 89.9486ms
moved types parse time: 73ms
candidates parse time : 1ms
C# parse time         : 222ms
candidates check time : 39ms
console write time    : 0ms

[api-updater (non-obsolete-error-filter)] 2/16/2022 2:56:50 PM : Starting C:/Program Files/Unity/Hub/Editor/2020.3.25f1/Editor/Data/Tools/ScriptUpdater/APIUpdater.NonObsoleteApiUpdaterDetector.exe
[api-updater (non-obsolete-error-filter)] 
----------------------------------
jit/startup time      : 95.0176ms
moved types parse time: 52ms
candidates parse time : 1ms
C# parse time         : 263ms
candidates check time : 35ms
console write time    : 0ms

[api-updater (non-obsolete-error-filter)] 2/16/2022 3:58:16 PM : Starting C:/Program Files/Unity/Hub/Editor/2020.3.25f1/Editor/Data/Tools/ScriptUpdater/APIUpdater.NonObsoleteApiUpdaterDetector.exe
[api-updater (non-obsolete-error-filter)] 
----------------------------------
jit/startup time      : 254.0055ms
moved types parse time: 56ms
candidates parse time : 1ms
C# parse time         : 231ms
candidates check time : 42ms
console write time    : 0ms

[api-updater (non-obsolete-error-filter)] 2/16/2022 3:58:19 PM : Starting C:/Program Files/Unity/Hub/Editor/2020.3.25f1/Editor/Data/Tools/ScriptUpdater/APIUpdater.NonObsoleteApiUpdaterDetector.exe
[api-updater (non-obsolete-error-filter)] 
----------------------------------
jit/startup time      : 99.9359ms
moved types parse time: 53ms
candidates parse time : 1ms
C# parse time         : 232ms
candidates check time : 43ms
console write time    : 0ms

[api-updater (non-obsolete-error-filter)] 2/16/2022 4:47:43 PM : Starting C:/Program Files/Unity/Hub/Editor/2020.3.25f1/Editor/Data/Tools/ScriptUpdater/APIUpdater.NonObsoleteApiUpdaterDetector.exe
[api-updater (non-obsolete-error-filter)] 
----------------------------------
jit/startup time      : 268.9727ms
moved types parse time: 57ms
candidates parse time : 1ms
C# parse time         : 276ms
candidates check time : 42ms
console write time    : 0ms

[api-updater (non-obsolete-error-filter)] 2/16/2022 4:52:59 PM : Starting C:/Program Files/Unity/Hub/Editor/2020.3.25f1/Editor/Data/Tools/ScriptUpdater/APIUpdater.NonObsoleteApiUpdaterDetector.exe
[api-updater (non-obsolete-error-filter)] 
----------------------------------
jit/startup time      : 228.0514ms
moved types parse time: 55ms
candidates parse time : 1ms
C# parse time         : 215ms
candidates check time : 37ms
console write time    : 0ms

[api-updater (non-obsolete-error-filter)] 2/16/2022 5:10:51 PM : Starting C:/Program Files/Unity/Hub/Editor/2020.3.25f1/Editor/Data/Tools/ScriptUpdater/APIUpdater.NonObsoleteApiUpdaterDetector.exe
[api-updater (non-obsolete-error-filter)] 
----------------------------------
jit/startup time      : 260.1075ms
moved types parse time: 64ms
candidates parse time : 1ms
C# parse time         : 234ms
candidates check time : 47ms
console write time    : 0ms

[api-updater (non-obsolete-error-filter)] 2/16/2022 5:26:39 PM : Starting C:/Program Files/Unity/Hub/Editor/2020.3.25f1/Editor/Data/Tools/ScriptUpdater/APIUpdater.NonObsoleteApiUpdaterDetector.exe
[api-updater (non-obsolete-error-filter)] 
----------------------------------
jit/startup time      : 216.6873ms
moved types parse time: 69ms
candidates parse time : 1ms
C# parse time         : 226ms
candidates check time : 28ms
console write time    : 0ms

[api-updater (non-obsolete-error-filter)] 2/16/2022 5:36:46 PM : Starting C:/Program Files/Unity/Hub/Editor/2020.3.25f1/Editor/Data/Tools/ScriptUpdater/APIUpdater.NonObsoleteApiUpdaterDetector.exe
[api-updater (non-obsolete-error-filter)] 
----------------------------------
jit/startup time      : 197.8892ms
moved types parse time: 65ms
candidates parse time : 1ms
C# parse time         : 239ms
candidates check time : 60ms
console write time    : 0ms

[api-updater (non-obsolete-error-filter)] 2/16/2022 5:37:07 PM : Starting C:/Program Files/Unity/Hub/Editor/2020.3.25f1/Editor/Data/Tools/ScriptUpdater/APIUpdater.NonObsoleteApiUpdaterDetector.exe
[api-updater (non-obsolete-error-filter)] 
----------------------------------
jit/startup time      : 99.942ms
moved types parse time: 89ms
candidates parse time : 2ms
C# parse time         : 246ms
candidates check time : 39ms
console write time    : 0ms

[api-updater (non-obsolete-error-filter)] 2/16/2022 5:47:51 PM : Starting C:/Program Files/Unity/Hub/Editor/2020.3.25f1/Editor/Data/Tools/ScriptUpdater/APIUpdater.NonObsoleteApiUpdaterDetector.exe
[api-updater (non-obsolete-error-filter)] 
----------------------------------
jit/startup time      : 140.952ms
moved types parse time: 63ms
candidates parse time : 1ms
C# parse time         : 203ms
candidates check time : 36ms
console write time    : 0ms

[api-updater (non-obsolete-error-filter)] 2/16/2022 5:48:02 PM : Starting C:/Program Files/Unity/Hub/Editor/2020.3.25f1/Editor/Data/Tools/ScriptUpdater/APIUpdater.NonObsoleteApiUpdaterDetector.exe
[api-updater (non-obsolete-error-filter)] 
----------------------------------
jit/startup time      : 128.9263ms
moved types parse time: 59ms
candidates parse time : 1ms
C# parse time         : 221ms
candidates check time : 34ms
console write time    : 0ms

[api-updater (non-obsolete-error-filter)] 2/16/2022 6:17:35 PM : Starting C:/Program Files/Unity/Hub/Editor/2020.3.25f1/Editor/Data/Tools/ScriptUpdater/APIUpdater.NonObsoleteApiUpdaterDetector.exe
[api-updater (non-obsolete-error-filter)] 
----------------------------------
jit/startup time      : 91.9487ms
moved types parse time: 68ms
candidates parse time : 1ms
C# parse time         : 230ms
candidates check time : 45ms
console write time    : 0ms

[api-updater (non-obsolete-error-filter)] 2/16/2022 6:17:40 PM : Starting C:/Program Files/Unity/Hub/Editor/2020.3.25f1/Editor/Data/Tools/ScriptUpdater/APIUpdater.NonObsoleteApiUpdaterDetector.exe
[api-updater (non-obsolete-error-filter)] 
----------------------------------
jit/startup time      : 97.9443ms
moved types parse time: 57ms
candidates parse time : 1ms
C# parse time         : 254ms
candidates check time : 36ms
console write time    : 1ms

[api-updater (non-obsolete-error-filter)] 2/16/2022 8:25:19 PM : Starting C:/Program Files/Unity/Hub/Editor/2020.3.25f1/Editor/Data/Tools/ScriptUpdater/APIUpdater.NonObsoleteApiUpdaterDetector.exe
[api-updater (non-obsolete-error-filter)] 
----------------------------------
jit/startup time      : 387.116ms
moved types parse time: 68ms
candidates parse time : 1ms
C# parse time         : 240ms
candidates check time : 37ms
console write time    : 0ms

[api-updater (non-obsolete-error-filter)] 2/16/2022 10:08:01 PM : Starting C:/Program Files/Unity/Hub/Editor/2020.3.25f1/Editor/Data/Tools/ScriptUpdater/APIUpdater.NonObsoleteApiUpdaterDetector.exe
[api-updater (non-obsolete-error-filter)] 
----------------------------------
jit/startup time      : 182.4974ms
moved types parse time: 58ms
candidates parse time : 1ms
C# parse time         : 273ms
candidates check time : 58ms
console write time    : 0ms

[api-updater (non-obsolete-error-filter)] 2/16/2022 10:08:06 PM : Starting C:/Program Files/Unity/Hub/Editor/2020.3.25f1/Editor/Data/Tools/ScriptUpdater/APIUpdater.NonObsoleteApiUpdaterDetector.exe
[api-updater (non-obsolete-error-filter)] 
----------------------------------
jit/startup time      : 83.9519ms
moved types parse time: 55ms
candidates parse time : 1ms
C# parse time         : 265ms
candidates check time : 56ms
console write time    : 0ms

[api-updater (non-obsolete-error-filter)] 2/16/2022 10:08:21 PM : Starting C:/Program Files/Unity/Hub/Editor/2020.3.25f1/Editor/Data/Tools/ScriptUpdater/APIUpdater.NonObsoleteApiUpdaterDetector.exe
[api-updater (non-obsolete-error-filter)] 
----------------------------------
jit/startup time      : 92.9478ms
moved types parse time: 68ms
candidates parse time : 1ms
C# parse time         : 268ms
candidates check time : 56ms
console write time    : 0ms

[api-updater (non-obsolete-error-filter)] 2/16/2022 10:55:15 PM : Starting C:/Program Files/Unity/Hub/Editor/2020.3.25f1/Editor/Data/Tools/ScriptUpdater/APIUpdater.NonObsoleteApiUpdaterDetector.exe
[api-updater (non-obsolete-error-filter)] 
----------------------------------
jit/startup time      : 250.8994ms
moved types parse time: 58ms
candidates parse time : 1ms
C# parse time         : 218ms
candidates check time : 53ms
console write time    : 0ms

[api-updater (non-obsolete-error-filter)] 2/16/2022 10:55:22 PM : Starting C:/Program Files/Unity/Hub/Editor/2020.3.25f1/Editor/Data/Tools/ScriptUpdater/APIUpdater.NonObsoleteApiUpdaterDetector.exe
[api-updater (non-obsolete-error-filter)] 
----------------------------------
jit/startup time      : 101.1242ms
moved types parse time: 64ms
candidates parse time : 1ms
C# parse time         : 274ms
candidates check time : 33ms
console write time    : 0ms

[api-updater (non-obsolete-error-filter)] 2/16/2022 10:55:34 PM : Starting C:/Program Files/Unity/Hub/Editor/2020.3.25f1/Editor/Data/Tools/ScriptUpdater/APIUpdater.NonObsoleteApiUpdaterDetector.exe
[api-updater (non-obsolete-error-filter)] 
----------------------------------
jit/startup time      : 129.926ms
moved types parse time: 72ms
candidates parse time : 1ms
C# parse time         : 253ms
candidates check time : 33ms
console write time    : 0ms

[api-updater (non-obsolete-error-filter)] 2/16/2022 11:20:32 PM : Starting C:/Program Files/Unity/Hub/Editor/2020.3.25f1/Editor/Data/Tools/ScriptUpdater/APIUpdater.NonObsoleteApiUpdaterDetector.exe
[api-updater (non-obsolete-error-filter)] 
----------------------------------
jit/startup time      : 204.8824ms
moved types parse time: 55ms
candidates parse time : 1ms
C# parse time         : 232ms
candidates check time : 38ms
console write time    : 0ms

[api-updater (non-obsolete-error-filter)] 2/16/2022 11:21:35 PM : Starting C:/Program Files/Unity/Hub/Editor/2020.3.25f1/Editor/Data/Tools/ScriptUpdater/APIUpdater.NonObsoleteApiUpdaterDetector.exe
[api-updater (non-obsolete-error-filter)] 
----------------------------------
jit/startup time      : 90.9475ms
moved types parse time: 60ms
candidates parse time : 1ms
C# parse time         : 224ms
candidates check time : 54ms
console write time    : 0ms

[api-updater (non-obsolete-error-filter)] 2/16/2022 11:21:43 PM : Starting C:/Program Files/Unity/Hub/Editor/2020.3.25f1/Editor/Data/Tools/ScriptUpdater/APIUpdater.NonObsoleteApiUpdaterDetector.exe
[api-updater (non-obsolete-error-filter)] 
----------------------------------
jit/startup time      : 95.9384ms
moved types parse time: 117ms
candidates parse time : 1ms
C# parse time         : 241ms
candidates check time : 45ms
console write time    : 0ms

[api-updater (non-obsolete-error-filter)] 2/17/2022 11:20:35 PM : Starting C:/Program Files/Unity/Hub/Editor/2020.3.25f1/Editor/Data/Tools/ScriptUpdater/APIUpdater.NonObsoleteApiUpdaterDetector.exe
[api-updater (non-obsolete-error-filter)] 
----------------------------------
jit/startup time      : 948.0038ms
moved types parse time: 61ms
candidates parse time : 1ms
C# parse time         : 672ms
candidates check time : 39ms
console write time    : 0ms

<<<<<<< HEAD
[api-updater (non-obsolete-error-filter)] 7/25/2022 4:15:46 PM : Starting C:/Program Files/Unity/Hub/Editor/2020.3.25f1/Editor/Data/Tools/ScriptUpdater/APIUpdater.NonObsoleteApiUpdaterDetector.exe
[api-updater (non-obsolete-error-filter)] 
----------------------------------
jit/startup time      : 807.8247ms
moved types parse time: 45ms
candidates parse time : 1ms
C# parse time         : 554ms
candidates check time : 28ms
console write time    : 0ms

[api-updater (non-obsolete-error-filter)] 9/10/2022 5:27:05 PM : Starting C:/Program Files/Unity/Hub/Editor/2020.3.25f1/Editor/Data/Tools/ScriptUpdater/APIUpdater.NonObsoleteApiUpdaterDetector.exe
[api-updater (non-obsolete-error-filter)] 
----------------------------------
jit/startup time      : 890.4429ms
moved types parse time: 47ms
candidates parse time : 0ms
C# parse time         : 529ms
candidates check time : 21ms
console write time    : 0ms

[api-updater (non-obsolete-error-filter)] 9/10/2022 5:27:12 PM : Starting C:/Program Files/Unity/Hub/Editor/2020.3.25f1/Editor/Data/Tools/ScriptUpdater/APIUpdater.NonObsoleteApiUpdaterDetector.exe
[api-updater (non-obsolete-error-filter)] 
----------------------------------
jit/startup time      : 46.0105ms
moved types parse time: 41ms
candidates parse time : 1ms
C# parse time         : 149ms
candidates check time : 21ms
console write time    : 0ms

[api-updater (non-obsolete-error-filter)] 9/27/2022 8:07:27 PM : Starting C:/Program Files/Unity/Hub/Editor/2020.3.25f1/Editor/Data/Tools/ScriptUpdater/APIUpdater.NonObsoleteApiUpdaterDetector.exe
[api-updater (non-obsolete-error-filter)] 
----------------------------------
jit/startup time      : 847.239ms
moved types parse time: 51ms
candidates parse time : 1ms
C# parse time         : 628ms
candidates check time : 33ms
console write time    : 0ms

[api-updater (non-obsolete-error-filter)] 9/30/2022 1:33:49 PM : Starting C:/Program Files/Unity/Hub/Editor/2020.3.25f1/Editor/Data/Tools/ScriptUpdater/APIUpdater.NonObsoleteApiUpdaterDetector.exe
[api-updater (non-obsolete-error-filter)] 
----------------------------------
jit/startup time      : 846.2198ms
moved types parse time: 48ms
candidates parse time : 1ms
C# parse time         : 584ms
candidates check time : 32ms
console write time    : 0ms

[api-updater (non-obsolete-error-filter)] 9/30/2022 2:28:22 PM : Starting C:/Program Files/Unity/Hub/Editor/2020.3.25f1/Editor/Data/Tools/ScriptUpdater/APIUpdater.NonObsoleteApiUpdaterDetector.exe
[api-updater (non-obsolete-error-filter)] 
----------------------------------
jit/startup time      : 56.5641ms
moved types parse time: 42ms
candidates parse time : 0ms
C# parse time         : 216ms
candidates check time : 39ms
console write time    : 0ms

[api-updater (non-obsolete-error-filter)] 10/2/2022 7:53:47 PM : Starting C:/Program Files/Unity/Hub/Editor/2020.3.25f1/Editor/Data/Tools/ScriptUpdater/APIUpdater.NonObsoleteApiUpdaterDetector.exe
[api-updater (non-obsolete-error-filter)] 
----------------------------------
jit/startup time      : 788.9201ms
moved types parse time: 47ms
candidates parse time : 0ms
C# parse time         : 573ms
candidates check time : 44ms
console write time    : 0ms

=======
[api-updater (non-obsolete-error-filter)] 3/11/2022 11:11:18 PM : Starting C:/Program Files/Unity/Hub/Editor/2020.3.25f1/Editor/Data/Tools/ScriptUpdater/APIUpdater.NonObsoleteApiUpdaterDetector.exe
[api-updater (non-obsolete-error-filter)] 
----------------------------------
jit/startup time      : 1007.0545ms
moved types parse time: 72ms
candidates parse time : 1ms
C# parse time         : 736ms
candidates check time : 38ms
console write time    : 0ms

[api-updater (non-obsolete-error-filter)] 3/12/2022 11:14:11 PM : Starting C:/Program Files/Unity/Hub/Editor/2020.3.25f1/Editor/Data/Tools/ScriptUpdater/APIUpdater.NonObsoleteApiUpdaterDetector.exe
[api-updater (non-obsolete-error-filter)] 
----------------------------------
jit/startup time      : 1135.1691ms
moved types parse time: 55ms
candidates parse time : 1ms
C# parse time         : 696ms
candidates check time : 33ms
console write time    : 0ms

>>>>>>> 27cb10a798a99db44ca06180cea45863f3705c98
[api-updater (non-obsolete-error-filter)] 3/28/2023 11:05:11 PM : Starting C:/Program Files/Unity/Hub/Editor/2020.3.25f1/Editor/Data/Tools/ScriptUpdater/APIUpdater.NonObsoleteApiUpdaterDetector.exe
[api-updater (non-obsolete-error-filter)] 
----------------------------------
jit/startup time      : 642.0474ms
moved types parse time: 39ms
candidates parse time : 0ms
C# parse time         : 218ms
candidates check time : 28ms
console write time    : 0ms

[api-updater (non-obsolete-error-filter)] 3/28/2023 11:06:54 PM : Starting C:/Program Files/Unity/Hub/Editor/2020.3.25f1/Editor/Data/Tools/ScriptUpdater/APIUpdater.NonObsoleteApiUpdaterDetector.exe
[api-updater (non-obsolete-error-filter)] 
----------------------------------
jit/startup time      : 40.7614ms
moved types parse time: 38ms
candidates parse time : 0ms
C# parse time         : 141ms
candidates check time : 28ms
console write time    : 0ms

[api-updater (non-obsolete-error-filter)] 3/28/2023 11:07:11 PM : Starting C:/Program Files/Unity/Hub/Editor/2020.3.25f1/Editor/Data/Tools/ScriptUpdater/APIUpdater.NonObsoleteApiUpdaterDetector.exe
[api-updater (non-obsolete-error-filter)] 
----------------------------------
jit/startup time      : 40.4337ms
moved types parse time: 37ms
candidates parse time : 0ms
C# parse time         : 147ms
candidates check time : 30ms
console write time    : 0ms

[api-updater (non-obsolete-error-filter)] 3/28/2023 11:07:40 PM : Starting C:/Program Files/Unity/Hub/Editor/2020.3.25f1/Editor/Data/Tools/ScriptUpdater/APIUpdater.NonObsoleteApiUpdaterDetector.exe
[api-updater (non-obsolete-error-filter)] 
----------------------------------
jit/startup time      : 41.1333ms
moved types parse time: 37ms
candidates parse time : 0ms
C# parse time         : 141ms
candidates check time : 22ms
console write time    : 0ms

[api-updater (non-obsolete-error-filter)] 3/28/2023 11:07:58 PM : Starting C:/Program Files/Unity/Hub/Editor/2020.3.25f1/Editor/Data/Tools/ScriptUpdater/APIUpdater.NonObsoleteApiUpdaterDetector.exe
[api-updater (non-obsolete-error-filter)] 
----------------------------------
jit/startup time      : 44.0704ms
moved types parse time: 38ms
candidates parse time : 0ms
C# parse time         : 149ms
candidates check time : 22ms
console write time    : 0ms

[api-updater (non-obsolete-error-filter)] 3/28/2023 11:08:27 PM : Starting C:/Program Files/Unity/Hub/Editor/2020.3.25f1/Editor/Data/Tools/ScriptUpdater/APIUpdater.NonObsoleteApiUpdaterDetector.exe
[api-updater (non-obsolete-error-filter)] 
----------------------------------
jit/startup time      : 45.1492ms
moved types parse time: 37ms
candidates parse time : 1ms
C# parse time         : 145ms
candidates check time : 23ms
console write time    : 0ms

[api-updater (non-obsolete-error-filter)] 3/29/2023 2:12:19 PM : Starting C:/Program Files/Unity/Hub/Editor/2020.3.25f1/Editor/Data/Tools/ScriptUpdater/APIUpdater.NonObsoleteApiUpdaterDetector.exe
[api-updater (non-obsolete-error-filter)] 
----------------------------------
jit/startup time      : 629.645ms
moved types parse time: 38ms
candidates parse time : 0ms
C# parse time         : 190ms
candidates check time : 26ms
console write time    : 0ms

[api-updater (non-obsolete-error-filter)] 3/29/2023 2:14:07 PM : Starting C:/Program Files/Unity/Hub/Editor/2020.3.25f1/Editor/Data/Tools/ScriptUpdater/APIUpdater.NonObsoleteApiUpdaterDetector.exe
[api-updater (non-obsolete-error-filter)] 
----------------------------------
jit/startup time      : 39.8635ms
moved types parse time: 36ms
candidates parse time : 0ms
C# parse time         : 141ms
candidates check time : 20ms
console write time    : 0ms

[api-updater (non-obsolete-error-filter)] 3/29/2023 2:15:34 PM : Starting C:/Program Files/Unity/Hub/Editor/2020.3.25f1/Editor/Data/Tools/ScriptUpdater/APIUpdater.NonObsoleteApiUpdaterDetector.exe
[api-updater (non-obsolete-error-filter)] 
----------------------------------
jit/startup time      : 38.8724ms
moved types parse time: 35ms
candidates parse time : 0ms
C# parse time         : 140ms
candidates check time : 22ms
console write time    : 0ms

[api-updater (non-obsolete-error-filter)] 3/29/2023 2:19:38 PM : Starting C:/Program Files/Unity/Hub/Editor/2020.3.25f1/Editor/Data/Tools/ScriptUpdater/APIUpdater.NonObsoleteApiUpdaterDetector.exe
[api-updater (non-obsolete-error-filter)] 
----------------------------------
jit/startup time      : 41.9257ms
moved types parse time: 38ms
candidates parse time : 0ms
C# parse time         : 144ms
candidates check time : 23ms
console write time    : 0ms

[api-updater (non-obsolete-error-filter)] 3/29/2023 2:21:14 PM : Starting C:/Program Files/Unity/Hub/Editor/2020.3.25f1/Editor/Data/Tools/ScriptUpdater/APIUpdater.NonObsoleteApiUpdaterDetector.exe
[api-updater (non-obsolete-error-filter)] 
----------------------------------
jit/startup time      : 39.8003ms
moved types parse time: 35ms
candidates parse time : 0ms
C# parse time         : 143ms
candidates check time : 23ms
console write time    : 0ms

[api-updater (non-obsolete-error-filter)] 3/29/2023 2:27:24 PM : Starting C:/Program Files/Unity/Hub/Editor/2020.3.25f1/Editor/Data/Tools/ScriptUpdater/APIUpdater.NonObsoleteApiUpdaterDetector.exe
[api-updater (non-obsolete-error-filter)] 
----------------------------------
jit/startup time      : 41.8602ms
moved types parse time: 37ms
candidates parse time : 0ms
C# parse time         : 144ms
candidates check time : 23ms
console write time    : 0ms

[api-updater (non-obsolete-error-filter)] 3/30/2023 6:19:47 PM : Starting C:/Program Files/Unity/Hub/Editor/2020.3.25f1/Editor/Data/Tools/ScriptUpdater/APIUpdater.NonObsoleteApiUpdaterDetector.exe
[api-updater (non-obsolete-error-filter)] 
----------------------------------
jit/startup time      : 814.1827ms
moved types parse time: 47ms
candidates parse time : 1ms
C# parse time         : 261ms
candidates check time : 38ms
console write time    : 0ms

[api-updater (non-obsolete-error-filter)] 3/30/2023 6:23:18 PM : Starting C:/Program Files/Unity/Hub/Editor/2020.3.25f1/Editor/Data/Tools/ScriptUpdater/APIUpdater.NonObsoleteApiUpdaterDetector.exe
[api-updater (non-obsolete-error-filter)] 
----------------------------------
jit/startup time      : 49.5149ms
moved types parse time: 40ms
candidates parse time : 0ms
C# parse time         : 165ms
candidates check time : 28ms
console write time    : 0ms

[api-updater (non-obsolete-error-filter)] 3/30/2023 6:41:53 PM : Starting C:/Program Files/Unity/Hub/Editor/2020.3.25f1/Editor/Data/Tools/ScriptUpdater/APIUpdater.NonObsoleteApiUpdaterDetector.exe
[api-updater (non-obsolete-error-filter)] 
----------------------------------
jit/startup time      : 62.0134ms
moved types parse time: 49ms
candidates parse time : 0ms
C# parse time         : 185ms
candidates check time : 27ms
console write time    : 0ms

[api-updater (non-obsolete-error-filter)] 3/30/2023 6:42:13 PM : Starting C:/Program Files/Unity/Hub/Editor/2020.3.25f1/Editor/Data/Tools/ScriptUpdater/APIUpdater.NonObsoleteApiUpdaterDetector.exe
[api-updater (non-obsolete-error-filter)] 
----------------------------------
jit/startup time      : 59.0139ms
moved types parse time: 45ms
candidates parse time : 1ms
C# parse time         : 174ms
candidates check time : 27ms
console write time    : 0ms

[api-updater (non-obsolete-error-filter)] 3/31/2023 3:15:23 PM : Starting C:/Program Files/Unity/Hub/Editor/2020.3.25f1/Editor/Data/Tools/ScriptUpdater/APIUpdater.NonObsoleteApiUpdaterDetector.exe
[api-updater (non-obsolete-error-filter)] 
----------------------------------
jit/startup time      : 745.8193ms
moved types parse time: 46ms
candidates parse time : 1ms
C# parse time         : 268ms
candidates check time : 34ms
console write time    : 0ms

[api-updater (non-obsolete-error-filter)] 3/31/2023 3:23:11 PM : Starting C:/Program Files/Unity/Hub/Editor/2020.3.25f1/Editor/Data/Tools/ScriptUpdater/APIUpdater.NonObsoleteApiUpdaterDetector.exe
[api-updater (non-obsolete-error-filter)] 
----------------------------------
jit/startup time      : 47.5429ms
moved types parse time: 41ms
candidates parse time : 0ms
C# parse time         : 161ms
candidates check time : 28ms
console write time    : 0ms

[api-updater (non-obsolete-error-filter)] 3/31/2023 3:27:35 PM : Starting C:/Program Files/Unity/Hub/Editor/2020.3.25f1/Editor/Data/Tools/ScriptUpdater/APIUpdater.NonObsoleteApiUpdaterDetector.exe
[api-updater (non-obsolete-error-filter)] 
----------------------------------
jit/startup time      : 49.0112ms
moved types parse time: 42ms
candidates parse time : 1ms
C# parse time         : 163ms
candidates check time : 26ms
console write time    : 0ms

[api-updater (non-obsolete-error-filter)] 4/5/2023 9:22:59 PM : Starting C:/Program Files/Unity/Hub/Editor/2020.3.25f1/Editor/Data/Tools/ScriptUpdater/APIUpdater.NonObsoleteApiUpdaterDetector.exe
[api-updater (non-obsolete-error-filter)] 
----------------------------------
jit/startup time      : 688.237ms
moved types parse time: 35ms
candidates parse time : 0ms
C# parse time         : 176ms
candidates check time : 23ms
console write time    : 0ms

[api-updater (non-obsolete-error-filter)] 4/5/2023 9:24:21 PM : Starting C:/Program Files/Unity/Hub/Editor/2020.3.25f1/Editor/Data/Tools/ScriptUpdater/APIUpdater.NonObsoleteApiUpdaterDetector.exe
[api-updater (non-obsolete-error-filter)] 
----------------------------------
jit/startup time      : 40.8682ms
moved types parse time: 43ms
candidates parse time : 1ms
C# parse time         : 139ms
candidates check time : 23ms
console write time    : 0ms

[api-updater (non-obsolete-error-filter)] 4/5/2023 9:27:52 PM : Starting C:/Program Files/Unity/Hub/Editor/2020.3.25f1/Editor/Data/Tools/ScriptUpdater/APIUpdater.NonObsoleteApiUpdaterDetector.exe
[api-updater (non-obsolete-error-filter)] 
----------------------------------
jit/startup time      : 41.6102ms
moved types parse time: 38ms
candidates parse time : 1ms
C# parse time         : 140ms
candidates check time : 24ms
console write time    : 0ms

[api-updater (non-obsolete-error-filter)] 4/5/2023 9:28:11 PM : Starting C:/Program Files/Unity/Hub/Editor/2020.3.25f1/Editor/Data/Tools/ScriptUpdater/APIUpdater.NonObsoleteApiUpdaterDetector.exe
[api-updater (non-obsolete-error-filter)] 
----------------------------------
jit/startup time      : 44.1959ms
moved types parse time: 39ms
candidates parse time : 0ms
C# parse time         : 156ms
candidates check time : 25ms
console write time    : 0ms

[api-updater (non-obsolete-error-filter)] 4/5/2023 9:45:43 PM : Starting C:/Program Files/Unity/Hub/Editor/2020.3.25f1/Editor/Data/Tools/ScriptUpdater/APIUpdater.NonObsoleteApiUpdaterDetector.exe
[api-updater (non-obsolete-error-filter)] 
----------------------------------
jit/startup time      : 40.9834ms
moved types parse time: 35ms
candidates parse time : 0ms
C# parse time         : 145ms
candidates check time : 27ms
console write time    : 0ms

[api-updater (non-obsolete-error-filter)] 4/5/2023 10:47:15 PM : Starting C:/Program Files/Unity/Hub/Editor/2020.3.25f1/Editor/Data/Tools/ScriptUpdater/APIUpdater.NonObsoleteApiUpdaterDetector.exe
[api-updater (non-obsolete-error-filter)] 
----------------------------------
jit/startup time      : 59.854ms
moved types parse time: 37ms
candidates parse time : 0ms
C# parse time         : 155ms
candidates check time : 29ms
console write time    : 0ms

[api-updater (non-obsolete-error-filter)] 4/6/2023 12:33:02 PM : Starting C:/Program Files/Unity/Hub/Editor/2020.3.25f1/Editor/Data/Tools/ScriptUpdater/APIUpdater.NonObsoleteApiUpdaterDetector.exe
[api-updater (non-obsolete-error-filter)] 
----------------------------------
jit/startup time      : 634.5817ms
moved types parse time: 43ms
candidates parse time : 0ms
C# parse time         : 166ms
candidates check time : 36ms
console write time    : 0ms

[api-updater (non-obsolete-error-filter)] 4/6/2023 12:33:57 PM : Starting C:/Program Files/Unity/Hub/Editor/2020.3.25f1/Editor/Data/Tools/ScriptUpdater/APIUpdater.NonObsoleteApiUpdaterDetector.exe
[api-updater (non-obsolete-error-filter)] 
----------------------------------
jit/startup time      : 39.8693ms
moved types parse time: 34ms
candidates parse time : 0ms
C# parse time         : 143ms
candidates check time : 21ms
console write time    : 0ms

[api-updater (non-obsolete-error-filter)] 4/6/2023 12:34:29 PM : Starting C:/Program Files/Unity/Hub/Editor/2020.3.25f1/Editor/Data/Tools/ScriptUpdater/APIUpdater.NonObsoleteApiUpdaterDetector.exe
[api-updater (non-obsolete-error-filter)] 
----------------------------------
jit/startup time      : 41.8551ms
moved types parse time: 35ms
candidates parse time : 0ms
C# parse time         : 135ms
candidates check time : 22ms
console write time    : 0ms

[api-updater (non-obsolete-error-filter)] 4/6/2023 12:34:59 PM : Starting C:/Program Files/Unity/Hub/Editor/2020.3.25f1/Editor/Data/Tools/ScriptUpdater/APIUpdater.NonObsoleteApiUpdaterDetector.exe
[api-updater (non-obsolete-error-filter)] 
----------------------------------
jit/startup time      : 40.8618ms
moved types parse time: 37ms
candidates parse time : 0ms
C# parse time         : 137ms
candidates check time : 39ms
console write time    : 0ms

[api-updater (non-obsolete-error-filter)] 4/6/2023 12:36:08 PM : Starting C:/Program Files/Unity/Hub/Editor/2020.3.25f1/Editor/Data/Tools/ScriptUpdater/APIUpdater.NonObsoleteApiUpdaterDetector.exe
[api-updater (non-obsolete-error-filter)] 
----------------------------------
jit/startup time      : 40.414ms
moved types parse time: 36ms
candidates parse time : 0ms
C# parse time         : 146ms
candidates check time : 34ms
console write time    : 0ms

[api-updater (non-obsolete-error-filter)] 4/6/2023 12:36:42 PM : Starting C:/Program Files/Unity/Hub/Editor/2020.3.25f1/Editor/Data/Tools/ScriptUpdater/APIUpdater.NonObsoleteApiUpdaterDetector.exe
[api-updater (non-obsolete-error-filter)] 
----------------------------------
jit/startup time      : 41.4138ms
moved types parse time: 40ms
candidates parse time : 0ms
C# parse time         : 132ms
candidates check time : 32ms
console write time    : 0ms

[api-updater (non-obsolete-error-filter)] 4/6/2023 12:36:55 PM : Starting C:/Program Files/Unity/Hub/Editor/2020.3.25f1/Editor/Data/Tools/ScriptUpdater/APIUpdater.NonObsoleteApiUpdaterDetector.exe
[api-updater (non-obsolete-error-filter)] 
----------------------------------
jit/startup time      : 39.866ms
moved types parse time: 40ms
candidates parse time : 0ms
C# parse time         : 141ms
candidates check time : 30ms
console write time    : 0ms

[api-updater (non-obsolete-error-filter)] 4/6/2023 12:37:03 PM : Starting C:/Program Files/Unity/Hub/Editor/2020.3.25f1/Editor/Data/Tools/ScriptUpdater/APIUpdater.NonObsoleteApiUpdaterDetector.exe
[api-updater (non-obsolete-error-filter)] 
----------------------------------
jit/startup time      : 39.5275ms
moved types parse time: 36ms
candidates parse time : 0ms
C# parse time         : 149ms
candidates check time : 23ms
console write time    : 0ms

[api-updater (non-obsolete-error-filter)] 4/12/2023 1:24:29 PM : Starting C:/Program Files/Unity/Hub/Editor/2020.3.25f1/Editor/Data/Tools/ScriptUpdater/APIUpdater.NonObsoleteApiUpdaterDetector.exe
[api-updater (non-obsolete-error-filter)] 
----------------------------------
jit/startup time      : 609.6885ms
moved types parse time: 38ms
candidates parse time : 0ms
C# parse time         : 166ms
candidates check time : 28ms
console write time    : 0ms

[api-updater (non-obsolete-error-filter)] 4/12/2023 1:44:08 PM : Starting C:/Program Files/Unity/Hub/Editor/2020.3.25f1/Editor/Data/Tools/ScriptUpdater/APIUpdater.NonObsoleteApiUpdaterDetector.exe
[api-updater (non-obsolete-error-filter)] 
----------------------------------
jit/startup time      : 39.7776ms
moved types parse time: 34ms
candidates parse time : 0ms
C# parse time         : 133ms
candidates check time : 39ms
console write time    : 0ms

[api-updater (non-obsolete-error-filter)] 4/12/2023 1:54:40 PM : Starting C:/Program Files/Unity/Hub/Editor/2020.3.25f1/Editor/Data/Tools/ScriptUpdater/APIUpdater.NonObsoleteApiUpdaterDetector.exe
[api-updater (non-obsolete-error-filter)] 
----------------------------------
jit/startup time      : 39.8667ms
moved types parse time: 37ms
candidates parse time : 0ms
C# parse time         : 140ms
candidates check time : 41ms
console write time    : 0ms

[api-updater (non-obsolete-error-filter)] 4/12/2023 1:55:28 PM : Starting C:/Program Files/Unity/Hub/Editor/2020.3.25f1/Editor/Data/Tools/ScriptUpdater/APIUpdater.NonObsoleteApiUpdaterDetector.exe
[api-updater (non-obsolete-error-filter)] 
----------------------------------
jit/startup time      : 39.1711ms
moved types parse time: 37ms
candidates parse time : 0ms
C# parse time         : 140ms
candidates check time : 39ms
console write time    : 0ms

[api-updater (non-obsolete-error-filter)] 4/12/2023 1:56:06 PM : Starting C:/Program Files/Unity/Hub/Editor/2020.3.25f1/Editor/Data/Tools/ScriptUpdater/APIUpdater.NonObsoleteApiUpdaterDetector.exe
[api-updater (non-obsolete-error-filter)] 
----------------------------------
jit/startup time      : 39.8662ms
moved types parse time: 36ms
candidates parse time : 0ms
C# parse time         : 151ms
candidates check time : 41ms
console write time    : 0ms

[api-updater (non-obsolete-error-filter)] 4/12/2023 1:57:21 PM : Starting C:/Program Files/Unity/Hub/Editor/2020.3.25f1/Editor/Data/Tools/ScriptUpdater/APIUpdater.NonObsoleteApiUpdaterDetector.exe
[api-updater (non-obsolete-error-filter)] 
----------------------------------
jit/startup time      : 40.5848ms
moved types parse time: 35ms
candidates parse time : 0ms
C# parse time         : 138ms
candidates check time : 40ms
console write time    : 0ms

